{
  "Records": [
    {
      "eventVersion": "2.0",
      "eventSource": "aws:s3",
      "awsRegion": "us-west-2",
      "eventTime": "2015-10-02T23:19:37.978Z",
      "eventName": "ObjectCreated:Copy",
      "userIdentity": {
        "principalId": "AWS:AIDAI6G54UYYQMI6OQ6P6"
      },
      "requestParameters": {
        "sourceIPAddress": "14.202.70.58"
      },
      "responseElements": {
        "x-amz-request-id": "280F6E190885596B",
        "x-amz-id-2": "UN8XnshhMkslJ73lzIUfiN7HGBmb2q+PUn2Zovndvx4HymWToDmtvgitxwuyaMgry4pKlY/EKmA="
      },
      "s3": {
        "s3SchemaVersion": "1.0",
        "configurationId": "MyEventPusherGeo",
        "bucket": {
          "name": "geo-tester",
          "ownerIdentity": {
            "principalId": "A1Q2QCSHD5IAXM"
          },
          "arn": "arn:aws:s3:::geo-tester"
        },
        "object": {
          "key": "alacer/Example+Alacer+Documents/ED0754A-07A2.15_w_ATT.pdf",
          "size": 512651,
          "sequencer": "00560F1109DE21DC9C"
        }
      }
    }
  ]
}



